^A:\PROJECTS\HOMEWORK17\HOMEWORK_17\HOMEWORK_17.CPP
A:\PROJECTS\HOMEWORK17\HOMEWORK_17\DEBUG\VC142.PDB
A:\PROJECTS\HOMEWORK17\HOMEWORK_17\DEBUG\VC142.IDB
A:\PROJECTS\HOMEWORK17\HOMEWORK_17\DEBUG\HOMEWORK_17.OBJ
